{
  "project_info": {
    "project_number": "955774724588",
    "project_id": "ugames-castlerush",
    "storage_bucket": "ugames-castlerush.appspot.com"
  },
  "client": [
    {
      "client_info": {
        "mobilesdk_app_id": "1:955774724588:android:d1b37f86461353f218f8c9",
        "android_client_info": {
          "package_name": "com.castle.rush"
        }
      },
      "oauth_client": [
        {
          "client_id": "955774724588-kfhe9t51ostak98mjlf6eeg0se91ptjv.apps.googleusercontent.com",
          "client_type": 3
        }
      ],
      "api_key": [
        {
          "current_key": "AIzaSyA7zy_rKRlp4q5KkB5NMNMl8yMpJjsAo-E"
        }
      ],
      "services": {
        "appinvite_service": {
          "other_platform_oauth_client": [
            {
              "client_id": "955774724588-kfhe9t51ostak98mjlf6eeg0se91ptjv.apps.googleusercontent.com",
              "client_type": 3
            }
          ]
        }
      }
    }
  ],
  "configuration_version": "1"
}